{
  "extends": "../../../tslint.json",
  "rules": {
    "directive-selector": [true, "attribute", "starWars", "camelCase"],
    "component-selector": [true, "element", "star-wars", "kebab-case"]
  }
}
